

Starting up. 01:36.50
---------------------

[01:36:50]ADMIN: Loading jobban_rank
[01:36:50]ADMIN: jobban_keylist was empty
[01:36:50]ADMIN: Loading Banlist
[01:37:49]ADMIN: AterIgnis has started the game.
[01:38:04]ADMIN: AterIgnis/(Kote) spawned /mob/living/carbon/human at (92,150,1)
[01:38:26]ADMIN: AterIgnis/(Kote) spawned /obj/item/weapon/knife/acb90 at (93,151,1)
[01:38:31]ADMIN: ATTACK: Kote (aterignis) attacked unknown () with ACB-90 (INTENT: HELP) (DAMTYE: BRUTE)
[01:38:41]ADMIN: ATTACK: Kote (aterignis) attacked unknown () with ACB-90 (INTENT: HELP) (DAMTYE: BRUTE)
[01:40:19]ADMIN: ATTACK: Kote (aterignis) attacked unknown () with ACB-90 (INTENT: HELP) (DAMTYE: BRUTE)
[01:40:20]EMOTE: unknown/ : <B>The unknown</B> screams!
[01:40:31]ADMIN: ATTACK: Kote (aterignis) attacked unknown () with ACB-90 (INTENT: HELP) (DAMTYE: BRUTE)
[01:40:36]ADMIN: ATTACK: Kote (aterignis) attacked unknown () with ACB-90 (INTENT: HELP) (DAMTYE: BRUTE)
[01:40:39]ADMIN: ATTACK: Kote (aterignis) attacked unknown () with ACB-90 (INTENT: HELP) (DAMTYE: BRUTE)
[01:40:40]EMOTE: unknown/ : <B>The unknown</B> is having trouble keeping their eyes open.
[01:40:40]EMOTE: unknown/ : <B>The unknown</B> 's body becomes limp.
[01:41:12]ADMIN: AterIgnis/(Kote) changed the equipment of *no client*/(unknown) to pirate.
[01:41:25]ADMIN: ATTACK: Kote (aterignis) attacked unknown (as Kote) () with ACB-90 (INTENT: HELP) (DAMTYE: BRUTE)


Starting up. 02:15.25
---------------------

[02:15:59]ADMIN: AterIgnis has started the game.
[02:16:19]SAY: Ian/ : Bark!
[02:17:17]ADMIN: AterIgnis/(Kote) spawned /mob/living/carbon/human at (92,150,1)
[02:17:23]SAY: mouse/ : Squeek!
[02:17:23]ADMIN: AterIgnis/(Kote) changed the equipment of *no client*/(unknown) to soviet admiral.
[02:17:31]ADMIN: AterIgnis/(Kote) spawned /obj/item/weapon/knife/acb90 at (92,152,1)
[02:17:36]ADMIN: ATTACK: Kote (aterignis) attacked unknown () with ACB-90 (INTENT: HELP) (DAMTYE: BRUTE)
[02:17:37]ADMIN: ATTACK: Kote (aterignis) attacked unknown () with ACB-90 (INTENT: HELP) (DAMTYE: BRUTE)
[02:17:39]EMOTE: unknown/ : <B>The unknown</B> is having trouble keeping their eyes open.
[02:17:39]EMOTE: unknown/ : <B>The unknown</B> 's body becomes limp.
[02:17:39]EMOTE: unknown/ : <B>The unknown</B> screams!


Starting up. 02:29.01
---------------------

[02:29:01]ADMIN: Loading jobban_rank
[02:29:01]ADMIN: jobban_keylist was empty
[02:29:01]ADMIN: Loading Banlist
[02:29:20]ADMIN: AterIgnis has started the game.
[02:29:30]ADMIN: AterIgnis/(Kote) spawned /mob/living/carbon/human at (92,150,1)
[02:29:37]ADMIN: AterIgnis/(Kote) spawned /obj/item/weapon/knife/acb90 at (92,151,1)
[02:29:44]ADMIN: AterIgnis/(Kote) changed the equipment of *no client*/(unknown) to soviet admiral.
[02:29:46]ADMIN: ATTACK: Kote (aterignis) attacked unknown () with ACB-90 (INTENT: HELP) (DAMTYE: BRUTE)
[02:29:56]ADMIN: ATTACK: Kote (aterignis) attacked unknown () with ACB-90 (INTENT: HELP) (DAMTYE: BRUTE)
[02:29:58]EMOTE: unknown/ : <B>The unknown</B> is having trouble keeping their eyes open.
[02:29:58]EMOTE: unknown/ : <B>The unknown</B> 's body becomes limp.
[02:29:58]EMOTE: unknown/ : <B>The unknown</B> screams!
[02:32:38]SAY: mouse/ : SQUEEK!
[02:32:56]SAY: mouse/ : Squeek!
[02:33:16]SAY: mouse/ : Squeek?
[02:33:22]SAY: mouse/ : Squeek?
[02:34:38]SAY: Jerry/ : Squeek!
[02:36:02]SAY: Runtime/ : HSSSSS


Starting up. 02:45.24
---------------------

[02:45:24]ADMIN: Loading jobban_rank
[02:45:24]ADMIN: jobban_keylist was empty
[02:45:24]ADMIN: Loading Banlist
[02:45:34]ADMIN: AterIgnis has started the game.
[02:45:58]ADMIN: AterIgnis/(Kote) spawned /mob/living/carbon/human at (92,150,1)
[02:46:06]ADMIN: AterIgnis/(Kote) spawned /obj/item/weapon/knife/acb90 at (92,151,1)
[02:46:16]ADMIN: AterIgnis/(Kote) changed the equipment of *no client*/(unknown) to soviet admiral.
[02:46:18]ADMIN: ATTACK: Kote (aterignis) attacked unknown () with ACB-90 (INTENT: HELP) (DAMTYE: BRUTE)
[02:46:19]EMOTE: unknown/ : <B>The unknown</B> screams!
[02:46:23]SAY: mouse/ : SQUEEK!
[02:46:28]ADMIN: ATTACK: Kote (aterignis) attacked unknown () with ACB-90 (INTENT: HELP) (DAMTYE: BRUTE)
[02:46:29]EMOTE: unknown/ : <B>The unknown</B> is having trouble keeping their eyes open.
[02:46:29]EMOTE: unknown/ : <B>The unknown</B> 's body becomes limp.
[02:52:47]SAY: mouse/ : SQUEEK!
