

Starting up. 19:39.36
---------------------

[19:39:36]ADMIN: Loading jobban_rank
[19:39:36]ADMIN: jobban_keylist was empty
[19:39:36]ADMIN: Loading Banlist
[19:41:23]SAY: mouse/ : Squeek?
[19:41:43]SAY: mouse/ : Squeek?
[19:42:14]SAY: mouse/ : Squeek?
[19:43:16]ADMIN: ATTACK: Human (eae98) (as Emperor) (aterignis) attacked Human (eae98) (as Emperor) (aterignis) with fork (INTENT: HURT) (DAMTYE: BRUTE)
[19:43:18]ADMIN: ATTACK: Human (eae98) (as Emperor) (aterignis) attacked Human (eae98) (as Emperor) (aterignis) with fork (INTENT: HURT) (DAMTYE: BRUTE)
[19:43:18]EMOTE: Human (eae98) (as Emperor)/AterIgnis : <B>Human (eae98) (as Emperor)</B> drops what they were holding, their right arm malfunctioning!
[19:43:32]ADMIN: ATTACK: Human (eae98) (as Emperor) (aterignis) attacked Human (eae98) (as Emperor) (aterignis) with fork (INTENT: HURT) (DAMTYE: BRUTE)
[19:43:36]ADMIN: ATTACK: Human (eae98) (as Emperor) (aterignis) attacked Human (eae98) (as Emperor) (aterignis) with fork (INTENT: HURT) (DAMTYE: BRUTE)
[19:43:37]ADMIN: ATTACK: Human (eae98) (as Emperor) (aterignis) attacked Human (eae98) (as Emperor) (aterignis) with fork (INTENT: HURT) (DAMTYE: BRUTE)
[19:43:39]ADMIN: ATTACK: Human (eae98) (as Emperor) (aterignis) attacked Human (eae98) (as Emperor) (aterignis) with fork (INTENT: HURT) (DAMTYE: BRUTE)
[19:43:40]ADMIN: ATTACK: Human (eae98) (as Emperor) (aterignis) attacked Human (eae98) (as Emperor) (aterignis) with fork (INTENT: HURT) (DAMTYE: BRUTE)
[19:44:43]SAY: Jerry/ : SQUEEK!
[19:44:57]SAY: mouse/ : Squeek?
[19:45:39]ADMIN: ATTACK: Human (eae98) (as Emperor) (aterignis) attacked Human (eae98) (as Emperor) (aterignis) with fork (INTENT: HURT) (DAMTYE: BRUTE)
[19:45:48]ADMIN: ATTACK: Human (eae98) (as Emperor) (aterignis) attacked Human (eae98) (as Emperor) (aterignis) with spoon (INTENT: HURT) (DAMTYE: BRUTE)
[19:45:50]ADMIN: ATTACK: Human (eae98) (as Emperor) (aterignis) attacked Human (eae98) (as Emperor) (aterignis) with spoon (INTENT: HURT) (DAMTYE: BRUTE)
[19:45:51]SAY: Jerry/ : Squeek?
[19:45:51]ADMIN: ATTACK: Human (eae98) (as Emperor) (aterignis) attacked Human (eae98) (as Emperor) (aterignis) with spoon (INTENT: HURT) (DAMTYE: BRUTE)
[19:45:52]ADMIN: ATTACK: Human (eae98) (as Emperor) (aterignis) attacked Human (eae98) (as Emperor) (aterignis) with spoon (INTENT: HURT) (DAMTYE: BRUTE)
[19:45:53]ADMIN: ATTACK: Human (eae98) (as Emperor) (aterignis) attacked Human (eae98) (as Emperor) (aterignis) with spoon (INTENT: HURT) (DAMTYE: BRUTE)
[19:45:55]ADMIN: ATTACK: Human (eae98) (as Emperor) (aterignis) attacked Human (eae98) (as Emperor) (aterignis) with spoon (INTENT: HURT) (DAMTYE: BRUTE)
[19:45:56]ADMIN: ATTACK: Human (eae98) (as Emperor) (aterignis) attacked Human (eae98) (as Emperor) (aterignis) with spoon (INTENT: HURT) (DAMTYE: BRUTE)
[19:45:57]ADMIN: ATTACK: Human (eae98) (as Emperor) (aterignis) attacked Human (eae98) (as Emperor) (aterignis) with spoon (INTENT: HURT) (DAMTYE: BRUTE)
[19:45:58]ADMIN: ATTACK: Human (eae98) (as Emperor) (aterignis) attacked Human (eae98) (as Emperor) (aterignis) with spoon (INTENT: HURT) (DAMTYE: BRUTE)
[19:45:59]ADMIN: ATTACK: Human (eae98) (as Emperor) (aterignis) attacked Human (eae98) (as Emperor) (aterignis) with spoon (INTENT: HURT) (DAMTYE: BRUTE)
[19:46:01]ADMIN: ATTACK: Human (eae98) (as Emperor) (aterignis) attacked Human (eae98) (as Emperor) (aterignis) with spoon (INTENT: HURT) (DAMTYE: BRUTE)
[19:46:02]ADMIN: ATTACK: Human (eae98) (as Emperor) (aterignis) attacked Human (eae98) (as Emperor) (aterignis) with spoon (INTENT: HURT) (DAMTYE: BRUTE)
[19:46:04]ADMIN: ATTACK: Human (eae98) (as Emperor) (aterignis) attacked Human (eae98) (as Emperor) (aterignis) with spoon (INTENT: HURT) (DAMTYE: BRUTE)
[19:46:05]ADMIN: ATTACK: Human (eae98) (as Emperor) (aterignis) attacked Human (eae98) (as Emperor) (aterignis) with spoon (INTENT: HURT) (DAMTYE: BRUTE)
[19:46:06]ADMIN: ATTACK: Human (eae98) (as Emperor) (aterignis) attacked Human (eae98) (as Emperor) (aterignis) with spoon (INTENT: HURT) (DAMTYE: BRUTE)
[19:46:08]ADMIN: ATTACK: Human (eae98) (as Emperor) (aterignis) attacked Human (eae98) (as Emperor) (aterignis) with spoon (INTENT: HURT) (DAMTYE: BRUTE)
[19:46:10]ADMIN: ATTACK: Human (eae98) (as Emperor) (aterignis) attacked Human (eae98) (as Emperor) (aterignis) with spoon (INTENT: HURT) (DAMTYE: BRUTE)
[19:46:11]ADMIN: ATTACK: Human (eae98) (as Emperor) (aterignis) attacked Human (eae98) (as Emperor) (aterignis) with spoon (INTENT: HURT) (DAMTYE: BRUTE)
[19:46:12]ADMIN: ATTACK: Human (eae98) (as Emperor) (aterignis) attacked Human (eae98) (as Emperor) (aterignis) with spoon (INTENT: HURT) (DAMTYE: BRUTE)
[19:46:42]SAY: mouse/ : Squeek?
[19:46:42]SAY: mouse/ : SQUEEK!
[19:47:28]SAY: Runtime/ : Meow!
[19:47:31]ADMIN: ATTACK: Human (eae98) (as Emperor) (aterignis) attacked Human (eae98) (as Emperor) (aterignis) with spoon (INTENT: HURT) (DAMTYE: BRUTE)
[19:47:32]ADMIN: ATTACK: Human (eae98) (as Emperor) (aterignis) attacked Human (eae98) (as Emperor) (aterignis) with spoon (INTENT: HURT) (DAMTYE: BRUTE)
[19:50:48]SAY: mouse/ : Squeek!
[19:53:04]ADMIN: ATTACK: Human (eae98) (aterignis) attacked Human (eae98) (aterignis) with spoon (INTENT: HURT) (DAMTYE: BRUTE)
[19:53:04]SAY: mouse/ : Squeek?
[19:53:08]ADMIN: ATTACK: Human (eae98) (aterignis) attacked Human (eae98) (aterignis) with spoon (INTENT: HURT) (DAMTYE: BRUTE)
[19:53:09]ADMIN: ATTACK: Human (eae98) (aterignis) attacked Human (eae98) (aterignis) with spoon (INTENT: HURT) (DAMTYE: BRUTE)
[19:54:07]SAY: mouse/ : Squeek?
[19:55:37]SAY: mouse/ : SQUEEK!


Starting up. 20:01.51
---------------------

[20:01:51]ADMIN: Loading jobban_rank
[20:01:51]ADMIN: jobban_keylist was empty
[20:01:51]ADMIN: Loading Banlist
[20:03:49]ADMIN: AterIgnis/(Emperor) spawned /mob/living/carbon/human at (69,117,1)
[20:03:56]SAY: Ian/ : YAP
[20:04:14]ADMIN: AterIgnis/(unknown) modified Human ()'s ckey to aterignis
[20:05:16]SAY: Runtime/ : Meow!
